
<svg width="1320px" height="750px" viewBox="0 0 1320 750" version="1.1" xmlns="http://www.w3.org/2000/svg" xmlns:xlink="http://www.w3.org/1999/xlink">
    <!-- Generator: Sketch 51 (57462) - http://www.bohemiancoding.com/sketch -->
    <title>Combined Shape</title>
    <desc>Created with Sketch.</desc>
    <defs></defs>
    <g id="Symbols" stroke="none" stroke-width="1" fill="none" fill-rule="evenodd" fill-opacity="0.5">
        <g id="Page-Elements/Image/Header-Image/Category/Home" fill="#FFFFFF" fill-opacity="0.5">
            <path d="M964.88035,750 L365.06774,750 L364.04245,746.929154 L359.061627,745.931345 L349.116366,736.018687 L339.171104,722.098435 L327.243344,708.210899 L321.279464,704.219664 L299.390058,682.382372 L279.499535,678.407495 L276.50121,671.455548 L263.574009,650.599707 L258.593186,643.647761 L246.665425,631.739485 L241.700987,622.808278 L213.847701,608.888027 L198.938,592.023421 L193.957177,585.055117 L178.031651,573.146841 L176.049153,561.238565 L167.086948,558.261496 L150.178365,545.339054 L143.215044,538.403465 L132.286725,523.501762 L126.322845,515.552007 L115.378142,496.691784 L110.413703,495.693975 L97.453733,484.767151 L83.5434742,472.858875 L70.6162726,469.881806 L65.6354496,447.046705 L53.7240737,445.051087 L42.7793707,436.11988 L29.8357848,427.172316 L27.8369019,421.218178 L14.9097002,412.286971 L9.94526159,401.360147 L2.98194005,380.487949 L11.6656116,376.169563 L6.96332154,371.474954 L0,356.573252 L18.907466,343.667167 L25.8544033,340.690098 L32.8177248,321.813518 L39.7810464,312.882311 L57.6890709,306.911815 L64.6523925,297.980608 L75.5970955,291.045019 L85.5423571,267.21211 L95.4712344,263.237232 L105.43288,255.287476 L115.378142,243.3792 L127.322286,235.429445 L133.286166,219.546291 L140.249488,212.594344 L154.159747,200.669711 L164.121393,198.69045 L173.067213,191.722146 L184.011916,172.861923 L198.921616,161.935099 L210.865761,155.997318 L214.847142,142.077067 L227.774344,137.104381 L228.773785,126.193913 L248.664308,118.244158 L251.646248,99.3839351 L264.589834,104.356622 L272.536213,80.5073549 L282.481475,76.5324771 L297.407559,71.5925055 L309.335319,55.6929942 L308.352262,48.7410474 L322.262521,40.7912918 L341.153603,25.9059469 L346.134426,20.9332602 L353.097747,0.0774198241 L361.044126,4.05229764 L363.07986,-2.04281037e-14 L959.570995,0 L960.921988,4.06865516 L981.730032,24.6300602 L986.792776,23.9266867 L994.313163,37.0617768 L1021.49469,63.9371852 L1035.51964,68.599079 L1032.4394,74.7495072 L1037.01061,79.2641832 L1047.46379,84.4985902 L1059.39155,92.4319883 L1069.33681,110.31076 L1071.38484,113.238756 L1091.68497,133.309436 L1102.17092,137.120738 L1112.0998,147.049754 L1116.13033,157.485853 L1120.21002,161.526161 L1133.00614,167.905594 L1138.97002,175.85535 L1149.91473,184.786557 L1149.45597,190.429902 L1157.81195,198.674093 L1166.82331,199.688259 L1183.71551,216.569222 L1187.5822,228.117632 L1239.68423,279.611111 L1246.3854,281.099646 L1262.29454,293.024279 L1268.25842,302.953295 L1283.20089,319.834257 L1293.12977,327.784013 L1295.11227,331.758891 L1298.84789,339.692289 C1300.5027,342.178632 1301.91175,344.812193 1303.15695,347.511184 L1312.02085,354.577634 L1317.00168,377.429092 L1316.93614,377.478165 L1318.00112,379.506497 L1320,389.435513 L1304.07447,407.314284 L1291.96649,410.765722 L1289.00093,413.759148 L1283.20089,426.174507 L1277.22063,440.094758 L1265.29287,444.053279 L1260.31205,451.005225 L1250.36678,468.883997 L1232.47514,474.838135 L1226.49488,490.737646 L1220.51462,488.742028 L1205.60492,507.618609 L1201.62353,517.531267 L1184.73133,528.458091 L1180.74995,536.407847 L1165.46341,538.321677 L1158.45094,545.371769 L1149.91473,567.192703 L1138.67511,565.327946 L1137.77397,566.243967 L1134.98864,580.098788 L1118.06368,598.975368 L1116.08118,600.954628 L1100.17204,618.8334 L1091.22621,615.856331 L1078.29901,630.741676 L1069.38596,635.190922 L1060.75144,643.876766 L1059.39155,645.627021 L1050.44573,664.519958 L1035.32303,669.541718 L1032.06256,672.813222 L1031.53826,675.446783 L1021.60938,685.359441 L1014.87544,690.168553 L967.246323,738.177879 L964.88035,750 Z" id="Combined-Shape" style="background-blend-mode: normal;"></path>
        </g>
    </g>
</svg>